CCTV-1综合,#genre#
CCTV-1综合,http://ottrrs.hl.chinamobile.com/PLTV/88888888/224/3221226419/index.m3u8#http://ottrrs.hl.chinamobile.com/PLTV/88888888/224/3221226016/index.m3u8#http://39.134.24.162/dbiptv.sn.chinamobile.com/PLTV/88888890/224/3221225804/index.m3u8#http://119.54.2.125:58000/hls/1/index.m3u8#http://121.19.134.245:808/tsfile/live/0001_1.m3u8#http://39.134.24.161/dbiptv.sn.chinamobile.com/PLTV/88888890/224/3221225804/index.m3u8#http://58.19.38.233:8888/newlive/live/hls/2/live.m3u8#http://39.134.24.162/dbiptv.sn.chinamobile.com/PLTV/88888888/224/3221225804/1.m3u8#http://36.33.240.48:9901/tsfile/live/0001_1.m3u8#http://221.2.146.228:8888/newlive/live/hls/2/live.m3u8#http://221.213.43.82:8888/newlive/live/hls/2/live.m3u8#http://www.furymax.top:85/rtp/239.254.96.96:8550
央视,#genre#
CCTV01,http://58.19.38.233:8888/newlive/live/hls/2/live.m3u8
CCTV02,http://58.19.38.233:8888/newlive/live/hls/3/live.m3u8
CCTV03,http://58.19.38.233:8888/newlive/live/hls/4/live.m3u8
CCTV04,http://58.19.38.233:8888/newlive/live/hls/5/live.m3u8
CCTV05,http://58.19.38.233:8888/newlive/live/hls/6/live.m3u8
CCTV06,http://58.19.38.233:8888/newlive/live/hls/8/live.m3u8
CCTV07,http://58.19.38.233:8888/newlive/live/hls/9/live.m3u8
CCTV08,http://58.19.38.233:8888/newlive/live/hls/10/live.m3u8
CCTV09,http://58.19.38.233:8888/newlive/live/hls/11/live.m3u8
CCTV10,http://58.19.38.233:8888/newlive/live/hls/12/live.m3u8
CCTV11,http://58.19.38.233:8888/newlive/live/hls/13/live.m3u8
CCTV12,http://58.19.38.233:8888/newlive/live/hls/14/live.m3u8
CCTV13,http://58.19.38.233:8888/newlive/live/hls/15/live.m3u8
CCTV14,http://58.19.38.233:8888/newlive/live/hls/16/live.m3u8
CCTV15,http://58.19.38.233:8888/newlive/live/hls/17/live.m3u8
CCTV16,http://58.19.38.233:8888/newlive/live/hls/34/live.m3u8
英雄虎胆,http://hls.cntv.kcdnvip.com/asp/hls/850/0303000a/3/default/b7fcd0d4ebb045fe8e653ee71b4ef8fc/850.m3u8

央卫视,#genre#
CCTV1-综合,http://1.180.245.195:9901/tsfile/live/0001_1.m3u8?key=txiptv&playlive=1&authid=0
CCTV2-财经,http://1.180.245.195:9901/tsfile/live/0002_1.m3u8?key=txiptv&playlive=1&authid=0
CCTV3-综艺,http://1.180.245.195:9901/tsfile/live/0003_1.m3u8?key=txiptv&playlive=1&authid=0
CCTV4-国际,http://1.180.245.195:9901/tsfile/live/0004_1.m3u8?key=txiptv&playlive=1&authid=0
CCTV5-体育,http://1.180.245.195:9901/tsfile/live/0005_1.m3u8?key=txiptv&playlive=1&authid=0
CCTV6-电影,http://1.180.245.195:9901/tsfile/live/0006_1.m3u8?key=txiptv&playlive=1&authid=0
CCTV7-军事,http://1.180.245.195:9901/tsfile/live/0007_1.m3u8?key=txiptv&playlive=1&authid=0
CCTV8-电视剧,http://1.180.245.195:9901/tsfile/live/0008_1.m3u8?key=txiptv&playlive=1&authid=0
CCTV9-纪录,http://1.180.245.195:9901/tsfile/live/0009_1.m3u8?key=txiptv&playlive=1&authid=0
CCTV10-科教,http://1.180.245.195:9901/tsfile/live/0010_1.m3u8?key=txiptv&playlive=1&authid=0
CCTV12-社会与法,http://1.180.245.195:9901/tsfile/live/0012_1.m3u8?key=txiptv&playlive=1&authid=0
CCTV13-新闻,http://1.180.245.195:9901/tsfile/live/0013_1.m3u8?key=txiptv&playlive=1&authid=0
CCTV14-少儿,http://1.180.245.195:9901/tsfile/live/0014_1.m3u8?key=txiptv&playlive=1&authid=0
CCTV15-音乐,http://1.180.245.195:9901/tsfile/live/0015_1.m3u8?key=txiptv&playlive=1&authid=0
CCTV-16,http://1.180.245.195:9901/tsfile/live/1006_1.m3u8?key=txiptv&playlive=1&authid=0
CCTV农业农村,http://1.180.245.195:9901/tsfile/live/1007_1.m3u8?key=txiptv&playlive=1&authid=0
湖南卫视,http://1.180.245.195:9901/tsfile/live/0128_1.m3u8?key=txiptv&playlive=1&authid=0
重庆卫视,http://1.180.245.195:9901/tsfile/live/0142_1.m3u8?key=txiptv&playlive=1&authid=0
江苏卫视,http://1.180.245.195:9901/tsfile/live/0127_1.m3u8?key=txiptv&playlive=1&authid=0
安徽卫视,http://1.180.245.195:9901/tsfile/live/0130_1.m3u8?key=txiptv&playlive=1&authid=0
北京卫视,http://1.180.245.195:9901/tsfile/live/0122_1.m3u8?key=txiptv&playlive=1&authid=0
天津卫视,http://1.180.245.195:9901/tsfile/live/0135_1.m3u8?key=txiptv&playlive=1&authid=0
辽宁卫视,http://1.180.245.195:9901/tsfile/live/0121_1.m3u8?key=txiptv&playlive=1&authid=0
山东卫视,http://1.180.245.195:9901/tsfile/live/0131_1.m3u8?key=txiptv&playlive=1&authid=0
河南卫视,http://1.180.245.195:9901/tsfile/live/0139_1.m3u8?key=txiptv&playlive=1&authid=0
黑龙江卫视,http://1.180.245.195:9901/tsfile/live/0143_1.m3u8?key=txiptv&playlive=1&authid=0
四川卫视,http://1.180.245.195:9901/tsfile/live/0123_1.m3u8?key=txiptv&playlive=1&authid=0
江西卫视,http://1.180.245.195:9901/tsfile/live/0138_1.m3u8?key=txiptv&playlive=1&authid=0
贵州卫视,http://1.180.245.195:9901/tsfile/live/0120_1.m3u8?key=txiptv&playlive=1&authid=0
深圳卫视,http://1.180.245.195:9901/tsfile/live/0126_1.m3u8?key=txiptv&playlive=1&authid=0
东南卫视,http://1.180.245.195:9901/tsfile/live/0137_1.m3u8?key=txiptv&playlive=1&authid=0
上海卫视,http://1.180.245.195:9901/tsfile/live/0107_1.m3u8?key=txiptv&playlive=1&authid=0
重庆卫视,http://1.180.245.195:9901/tsfile/live/0142_2.m3u8?key=txiptv&playlive=1&authid=0
东南卫视,http://1.180.245.195:9901/tsfile/live/0137_2.m3u8?key=txiptv&playlive=1&authid=0
河北卫视,http://1.180.245.195:9901/tsfile/live/0117_1.m3u8?key=txiptv&playlive=1&authid=0
广东卫视,http://1.180.245.195:9901/tsfile/live/0125_1.m3u8?key=txiptv&playlive=1&authid=0
广西卫视,http://1.180.245.195:9901/tsfile/live/0113_1.m3u8?key=txiptv&playlive=1&authid=0
吉林卫视,http://1.180.245.195:9901/tsfile/live/0116_1.m3u8?key=txiptv&playlive=1&authid=0
陕西卫视,http://1.180.245.195:9901/tsfile/live/0136_1.m3u8?key=txiptv&playlive=1&authid=0
海峡卫视,http://1.180.245.195:9901/tsfile/live/0150_1.m3u8?key=txiptv&playlive=1&authid=0
CCTV1-综合,http://1.180.245.195:9901/tsfile/live/0001_1.m3u8?key=txiptv&playlive=1&authid=0
CCTV2-财经,http://1.180.245.195:9901/tsfile/live/0002_1.m3u8?key=txiptv&playlive=1&authid=0
CCTV3-综艺,http://1.180.245.195:9901/tsfile/live/0003_1.m3u8?key=txiptv&playlive=1&authid=0
CCTV4-国际,http://1.180.245.195:9901/tsfile/live/0004_1.m3u8?key=txiptv&playlive=1&authid=0
CCTV5-体育,http://1.180.245.195:9901/tsfile/live/0005_1.m3u8?key=txiptv&playlive=1&authid=0
CCTV6-电影,http://1.180.245.195:9901/tsfile/live/0006_1.m3u8?key=txiptv&playlive=1&authid=0
CCTV7-军事,http://1.180.245.195:9901/tsfile/live/0007_1.m3u8?key=txiptv&playlive=1&authid=0
CCTV8-电视剧,http://1.180.245.195:9901/tsfile/live/0008_1.m3u8?key=txiptv&playlive=1&authid=0
CCTV9-纪录,http://1.180.245.195:9901/tsfile/live/0009_1.m3u8?key=txiptv&playlive=1&authid=0
CCTV10-科教,http://1.180.245.195:9901/tsfile/live/0010_1.m3u8?key=txiptv&playlive=1&authid=0
CCTV12-社会与法,http://1.180.245.195:9901/tsfile/live/0012_1.m3u8?key=txiptv&playlive=1&authid=0
CCTV13-新闻,http://1.180.245.195:9901/tsfile/live/0013_1.m3u8?key=txiptv&playlive=1&authid=0
CCTV14-少儿,http://1.180.245.195:9901/tsfile/live/0014_1.m3u8?key=txiptv&playlive=1&authid=0
CCTV15-音乐,http://1.180.245.195:9901/tsfile/live/0015_1.m3u8?key=txiptv&playlive=1&authid=0
CCTV-16,http://1.180.245.195:9901/tsfile/live/1006_1.m3u8?key=txiptv&playlive=1&authid=0
CCTV农业农村,http://1.180.245.195:9901/tsfile/live/1007_1.m3u8?key=txiptv&playlive=1&authid=0
湖南卫视,http://1.180.245.195:9901/tsfile/live/0128_1.m3u8?key=txiptv&playlive=1&authid=0
重庆卫视,http://1.180.245.195:9901/tsfile/live/0142_1.m3u8?key=txiptv&playlive=1&authid=0
江苏卫视,http://1.180.245.195:9901/tsfile/live/0127_1.m3u8?key=txiptv&playlive=1&authid=0
安徽卫视,http://1.180.245.195:9901/tsfile/live/0130_1.m3u8?key=txiptv&playlive=1&authid=0
北京卫视,http://1.180.245.195:9901/tsfile/live/0122_1.m3u8?key=txiptv&playlive=1&authid=0
天津卫视,http://1.180.245.195:9901/tsfile/live/0135_1.m3u8?key=txiptv&playlive=1&authid=0
辽宁卫视,http://1.180.245.195:9901/tsfile/live/0121_1.m3u8?key=txiptv&playlive=1&authid=0
山东卫视,http://1.180.245.195:9901/tsfile/live/0131_1.m3u8?key=txiptv&playlive=1&authid=0
河南卫视,http://1.180.245.195:9901/tsfile/live/0139_1.m3u8?key=txiptv&playlive=1&authid=0
黑龙江卫视,http://1.180.245.195:9901/tsfile/live/0143_1.m3u8?key=txiptv&playlive=1&authid=0
四川卫视,http://1.180.245.195:9901/tsfile/live/0123_1.m3u8?key=txiptv&playlive=1&authid=0
江西卫视,http://1.180.245.195:9901/tsfile/live/0138_1.m3u8?key=txiptv&playlive=1&authid=0
贵州卫视,http://1.180.245.195:9901/tsfile/live/0120_1.m3u8?key=txiptv&playlive=1&authid=0
深圳卫视,http://1.180.245.195:9901/tsfile/live/0126_1.m3u8?key=txiptv&playlive=1&authid=0
东南卫视,http://1.180.245.195:9901/tsfile/live/0137_1.m3u8?key=txiptv&playlive=1&authid=0
上海卫视,http://1.180.245.195:9901/tsfile/live/0107_1.m3u8?key=txiptv&playlive=1&authid=0
重庆卫视,http://1.180.245.195:9901/tsfile/live/0142_2.m3u8?key=txiptv&playlive=1&authid=0
东南卫视,http://1.180.245.195:9901/tsfile/live/0137_2.m3u8?key=txiptv&playlive=1&authid=0
河北卫视,http://1.180.245.195:9901/tsfile/live/0117_1.m3u8?key=txiptv&playlive=1&authid=0
广东卫视,http://1.180.245.195:9901/tsfile/live/0125_1.m3u8?key=txiptv&playlive=1&authid=0
广西卫视,http://1.180.245.195:9901/tsfile/live/0113_1.m3u8?key=txiptv&playlive=1&authid=0
吉林卫视,http://1.180.245.195:9901/tsfile/live/0116_1.m3u8?key=txiptv&playlive=1&authid=0
陕西卫视,http://1.180.245.195:9901/tsfile/live/0136_1.m3u8?key=txiptv&playlive=1&authid=0
海峡卫视,http://1.180.245.195:9901/tsfile/live/0150_1.m3u8?key=txiptv&playlive=1&authid=0

CCTV-2财经,#genre#
CCTV-2财经,http://ottrrs.hl.chinamobile.com/PLTV/88888888/224/3221226540/index.m3u8#http://39.134.24.162/dbiptv.sn.chinamobile.com/PLTV/88888890/224/3221226195/index.m3u8#http://39.134.24.162/dbiptv.sn.chinamobile.com/PLTV/88888890/224/3221226224/index.m3u8#http://39.134.24.162/dbiptv.sn.chinamobile.com/PLTV/88888890/224/3221226195/index.m3u8
CCTV-3综艺,#genre#
CCTV-3综艺,http://ottrrs.hl.chinamobile.com/PLTV/88888888/224/3221226021/index.m3u8#http://39.134.24.166/dbiptv.sn.chinamobile.com/PLTV/88888888/224/3221226397/1.m3u8
CCTV-4中文国际,#genre#
CCTV-4中文国际,http://ottrrs.hl.chinamobile.com/PLTV/88888888/224/3221226428/index.m3u8#http://39.134.24.162/dbiptv.sn.chinamobile.com/PLTV/88888890/224/3221226191/index.m3u8#http://39.134.24.162/dbiptv.sn.chinamobile.com/PLTV/88888890/224/3221226191/index.m3u8?#http://39.134.24.161/dbiptv.sn.chinamobile.com/PLTV/88888890/224/3221226191/index.m3u8
CCTV-5体育,#genre#
CCTV-5体育,http://ottrrs.hl.chinamobile.com/PLTV/88888888/224/3221226019/index.m3u8#http://39.134.24.162/dbiptv.sn.chinamobile.com/PLTV/88888890/224/3221226395/index.m3u8#http://39.134.24.161/dbiptv.sn.chinamobile.com/PLTV/88888890/224/3221226395/index.m3u8#http://39.134.24.161/dbiptv.sn.chinamobile.com/PLTV/88888890/224/3221226395/index.m3u8
CCTV-5+体育赛事,#genre#
CCTV-5+体育赛事,http://ottrrs.hl.chinamobile.com/PLTV/88888888/224/3221225603/index.m3u8#http://39.134.24.162/dbiptv.sn.chinamobile.com/PLTV/88888890/224/3221225761/index.m3u8#http://39.134.24.162/dbiptv.sn.chinamobile.com/PLTV/88888890/224/3221225761/index.m3u8
CCTV-6电影,#genre#
CCTV-6电影,http://ottrrs.hl.chinamobile.com/PLTV/88888888/224/3221226010/index.m3u8#http://39.134.24.162/dbiptv.sn.chinamobile.com/PLTV/88888890/224/3221226393/index.m3u8#http://111.20.40.167/PLTV/88888893/224/3221226393/index.m3u8#http://111.20.40.166/PLTV/88888893/224/3221226393/index.m3u8
CCTV-7国防军事,#genre#
CCTV-7国防军事,http://ottrrs.hl.chinamobile.com/PLTV/88888888/224/3221225733/index.m3u8#http://39.134.24.166/dbiptv.sn.chinamobile.com/PLTV/88888890/224/3221226192/index.m3u8
CCTV-8电视剧,#genre#
CCTV-8电视剧,http://ottrrs.hl.chinamobile.com/PLTV/88888888/224/3221226008/index.m3u8#http://39.134.24.162/dbiptv.sn.chinamobile.com/PLTV/88888890/224/3221226391/index.m3u8#http://39.134.24.166/dbiptv.sn.chinamobile.com/PLTV/88888890/224/3221226391/index.m3u8#http://111.20.40.172/PLTV/88888893/224/3221226391/index.m3u8#http://39.134.24.162/dbiptv.sn.chinamobile.com/PLTV/88888890/224/3221226012/index.m3u8
CCTV-9纪录,#genre#
CCTV-9纪录,http://ottrrs.hl.chinamobile.com/PLTV/88888888/224/3221225734/index.m3u8#http://39.134.24.162/dbiptv.sn.chinamobile.com/PLTV/88888890/224/3221226197/index.m3u8#http://39.134.24.162/dbiptv.sn.chinamobile.com/PLTV/88888890/224/3221226197/index.m3u8
CCTV-10科教,#genre#
CCTV-10科教,http://ottrrs.hl.chinamobile.com/PLTV/88888888/224/3221225730/index.m3u8#http://39.134.24.162/dbiptv.sn.chinamobile.com/PLTV/88888890/224/3221226189/index.m3u8#http://39.134.24.162/dbiptv.sn.chinamobile.com/PLTV/88888890/224/3221226189/index.m3u8
CCTV-11戏曲,#genre#
CCTV-11戏曲,http://dbiptv.sn.chinamobile.com/PLTV/88888890/224/3221226240/index.m3u8
CCTV-12社会与法,#genre#
CCTV-12社会与法,http://ottrrs.hl.chinamobile.com/PLTV/88888888/224/3221225731/index.m3u8#http://ottrrs.hl.chinamobile.com/PLTV/88888888/224/3221225731/index.m3u8
CCTV-13新闻,#genre#
CCTV-13新闻,http://ottrrs.hl.chinamobile.com/PLTV/88888888/224/3221226537/index.m3u8#http://39.134.24.162/dbiptv.sn.chinamobile.com/PLTV/88888890/224/3221226233/index.m3u8#http://39.134.24.162/dbiptv.sn.chinamobile.com/PLTV/88888890/224/3221226233/index.m3u8?#https://live-play.cctvnews.cctv.com/cctv/merge_cctv13.m3u8
CCTV-14少儿,#genre#
CCTV-14少儿,http://ottrrs.hl.chinamobile.com/PLTV/88888888/224/3221225732/index.m3u8
CCTV-15音乐,#genre#
CCTV-15音乐,http://39.134.24.162/dbiptv.sn.chinamobile.com/PLTV/88888890/224/3221225785/index.m3u8#http://39.134.24.162/dbiptv.sn.chinamobile.com/PLTV/88888890/224/3221225785/index.m3u8
CCTV-16奥林匹克,#genre#
CCTV-16奥林匹克,http://ottrrs.hl.chinamobile.com/PLTV/88888888/224/3221226100/index.m3u8#http://39.134.24.162/dbiptv.sn.chinamobile.com/PLTV/88888890/224/3221226921/index.m3u8#http://39.134.24.162/dbiptv.sn.chinamobile.com/PLTV/88888890/224/3221226921/index.m3u8
CCTV-17农业农村,#genre#
CCTV-17农业农村,http://ottrrs.hl.chinamobile.com/PLTV/88888888/224/3221225765/index.m3u8
